{"puzzle": [
		{
			"solution" : 
					[
						[],
						[],
						[],
						[],
						[],
						[],
						[],
						[],
						[],
						[],
						[],
					]
		},
		{
			"solution" : 
					[
						[],
						[],
						[],
						[],
						[],
						[],
						[],
						[],
						[],
						[],
						[],
					]
		},
		{
			"solution" : 
					[
						[],
						[],
						[],
						[],
						[],
						[],
						[],
						[],
						[],
						[],
						[],
					]
		},
		{
			"solution" : 
					[
						[],
						[],
						[],
						[],
						[],
						[],
						[],
						[],
						[],
						[],
						[],
					]
		},
		{
			"solution" : 
					[
						[],
						[],
						[],
						[],
						[],
						[],
						[],
						[],
						[],
						[],
						[],
					]
		} 

	]
}