{
  "puzzle": {
    "wordlist": [
        {"word" : "encryption", "isHorizontal": true, "startX": 0, "startY": 0, "clue": "makes things unreadable to people who should not read it."},
        {"word" : "nfc", "isHorizontal": false, "startX": 1, "startY": 0, "clue": "very short range wireless communication"},
        {"word" : "network", "isHorizontal": false, "startX": 9, "startY": 0, "clue": "A connection of things"},
        {"word" : "gpu", "isHorizontal": true, "startX": 11, "startY": 1, "clue": "Graphics processor"},
        {"word" : "google", "isHorizontal": false, "startX": 11, "startY": 1, "clue": "where you go to find stuff on the web"},
        {"word" : "cpu", "isHorizontal": true, "startX": 1, "startY": 2, "clue": "microprocessor"},
        {"word" : "upgrade", "isHorizontal": false, "startX": 3, "startY": 2, "clue": "make better"},
        {"word" : "apple", "isHorizontal": false, "startX": 5, "startY": 2, "clue": "a certain company with a fruit logo"},
        {"word" : "popup", "isHorizontal": true, "startX": 3, "startY": 3, "clue": "it comes out of knowwhere"},
        {"word" : "blog", "isHorizontal": true, "startX": 0, "startY": 4, "clue": "a personal online journal"},
        {"word" : "bluetooth", "isHorizontal": false, "startX": 0, "startY": 4, "clue": "short range wireless communication"},
        {"word" : "gif", "isHorizontal": true, "startX": 11, "startY": 4, "clue": "image of funny cats"},
        {"word" : "facebook", "isHorizontal": false, "startX": 13, "startY": 4, "clue": "where everybody seems to be now adays"},
        {"word" : "viral", "isHorizontal": true, "startX": 7, "startY": 5, "clue": "a youtube sensation"},
        {"word" : "wifi", "isHorizontal": false, "startX": 6, "startY": 7, "clue": "if you dont protect it, your neighbours will use it"},
        {"word" : "email", "isHorizontal": true, "startX": 3, "startY": 8, "clue": "electronic mail"},
        {"word" : "mit", "isHorizontal": false, "startX": 4, "startY": 8, "clue": "school of computer science"},
        {"word" : "usb", "isHorizontal": true, "startX": 11, "startY": 8, "clue": "you stick it in a computer"},
        {"word" : "bit", "isHorizontal": true, "startX": 2, "startY": 10, "clue": "either 1 or 0"},
        {"word" : "java", "isHorizontal": false, "startX": 11, "startY": 10, "clue": "a popular programming language"},
        {"word" : "zip", "isHorizontal": false, "startX": 8, "startY": 11, "clue": "keeps your files shut"},
        {"word" : "hack", "isHorizontal": true, "startX": 10, "startY": 11, "clue": "illegal entry"},
        {"word" : "hacker", "isHorizontal": true, "startX": 0, "startY": 12, "clue": "mastermind of illegal entry"},
        {"word" : "upload", "isHorizontal": true, "startX": 7, "startY": 13, "clue": "send into the 'clouds'"}
    ],
    "solution": [
    ]
  }
}
