{
  "puzzle": {
    "wordlist":
    [
      {"word" : "chic", "isHorizontal": true, "startX": 5, "startY": 0, "clue": "en vogue"},
      {"word" : "culotte", "isHorizontal": false, "startX": 5, "startY": 0, "clue": "a divided skirt"},
      {"word" : "crown", "isHorizontal": false, "startX": 8, "startY": 0, "clue": "top of the head"},
      {"word" : "belt", "isHorizontal": true, "startX": 0, "startY": 1, "clue": "it goes through loops"},
      {"word" : "emboss", "isHorizontal": false, "startX": 1, "startY": 1, "clue": "make an impression on"},
      {"word" : "groom", "isHorizontal": false, "startX": 10, "startY": 1, "clue": "member of the wedding"},
      {"word" : "glamour", "isHorizontal": true, "startX": 4, "startY": 2, "clue": "charm and allure"},
      {"word" : "gown", "isHorizontal": true, "startX": 0, "startY": 4, "clue": "bridal dress"},
      {"word" : "silk", "isHorizontal": false, "startX": 7, "startY": 5, "clue": "fine fabric"},
      {"word" : "style", "isHorizontal": true, "startX": 1, "startY": 6, "clue": "fashionista's concern"},
      {"word" : "linen", "isHorizontal": false, "startX": 4, "startY": 6, "clue": "flax cloth"},
      {"word" : "shirt", "isHorizontal": false, "startX": 9, "startY": 6, "clue": "collared garment"},
      {"word" : "wig", "isHorizontal": false, "startX": 2, "startY": 8, "clue": "bald one's blessing"},
      {"word" : "necktie", "isHorizontal": true, "startX": 4, "startY": 8, "clue": "hangman's rope"},
      {"word" : "bride", "isHorizontal": true, "startX": 0, "startY": 9, "clue": "new wife"},
      {"word" : "vest", "isHorizontal": true, "startX": 6, "startY": 10, "clue": "sleeveless garment"}
    ],
    "solution": [
    ]
  }
}
